{
  "MakeupApiList": [
    {
      "id": 1,
      "brand": "colourpop",
      "name": "Lippie Pencil",
      "image_link": "//s3.amazonaws.com/donovanbailey/products/api_featured_images/000/001/048/original/open-uri20180708-4-13okqci?1531093614"
    },
    {
      "id": 2,
      "brand": "colourpop",
      "name": "Lip",
      "image_link": "//s3.amazonaws.com/donovanbailey/products/api_featured_images/000/001/047/original/open-uri20180708-4-e7idod?1531087336"
    },
    {
      "id": 3,
      "brand": "colourpop",
      "name": "Lippie Stix",
      "image_link": "//s3.amazonaws.com/donovanbailey/products/api_featured_images/000/001/046/original/open-uri20180708-4-1f333k1?1531086651"
    },
    {
      "id": 4,
      "brand": "colourpop",
      "name": "No Filter Foundation",
      "image_link": "//s3.amazonaws.com/donovanbailey/products/api_featured_images/000/001/045/original/open-uri20180708-4-4bvqii?1531074237"
    },
    {
      "id": 5,
      "brand": "deciem",
      "name": "Serum Foundation",
      "image_link": "//s3.amazonaws.com/donovanbailey/products/api_featured_images/000/001/043/original/open-uri20180706-4-nszgw9?1530919194"
    },
    {
      "id": 6,
      "brand": "deciem",
      "name": "Coverage Foundation",
      "image_link": "//s3.amazonaws.com/donovanbailey/products/api_featured_images/000/001/042/original/open-uri20180706-4-1e74943?1530916234"
    },
    {
      "id": 7,
      "brand": "rejuva minerals",
      "name": "Multi Purpose Powder - Eye Shadow & Face",
      "image_link": "//s3.amazonaws.com/donovanbailey/products/api_featured_images/000/001/034/original/open-uri20180630-4-1n63e1y?1530390382"
    },
    {
      "id": 8,
      "brand": "rejuva minerals",
      "name": "Bronzer - loose",
      "image_link": "//s3.amazonaws.com/donovanbailey/products/api_featured_images/000/001/032/original/open-uri20180630-4-1bl3btv?1530390381"
    },
    {
      "id": 9,
      "brand": "rejuva minerals",
      "name": "Bronzer - pressed",
      "image_link": "//s3.amazonaws.com/donovanbailey/products/api_featured_images/000/001/031/original/open-uri20180630-4-1axfay6?1530390380"
    },
    {
      "id": 10,
      "brand": "penny lane organics",
      "name": "Lip Gloss",
      "image_link": "//s3.amazonaws.com/donovanbailey/products/api_featured_images/000/001/030/original/open-uri20180630-4-ucbwbt?1530390380"
    },
    {
      "id": 11,
      "brand": "marienatie",
      "name": "Lipstick",
      "image_link": "//s3.amazonaws.com/donovanbailey/products/api_featured_images/000/001/023/original/open-uri20180630-4-149dwc3?1530390375"
    },
    {
      "id": 12,
      "brand": "marienatie",
      "name": "Gel Liner",
      "image_link": "//s3.amazonaws.com/donovanbailey/products/api_featured_images/000/001/021/original/open-uri20180630-4-10sgmvz?1530390373"
    },
    {
      "id": 13,
      "brand": "alva",
      "name": "Liquid Eye Shadow",
      "image_link": "//s3.amazonaws.com/donovanbailey/products/api_featured_images/000/001/005/original/open-uri20180630-4-1eau5wj?1530390360"
    },
    {
      "id": 14,
      "brand": "milani",
      "name": "Milani Baked Bronzer ",
      "image_link": "//s3.amazonaws.com/donovanbailey/products/api_featured_images/000/000/485/original/open-uri20171223-4-14pkodz?1514063329"
    },
    {
      "id": 15,
      "brand": "e.l.f.",
      "name": "e.l.f. Studio Bronzer",
      "image_link": "//s3.amazonaws.com/donovanbailey/products/api_featured_images/000/000/478/original/data?1514063328"
    },
    {
      "id": 16,
      "brand": "e.l.f.",
      "name": "e.l.f. Studio Blush Palette Dark",
      "image_link": "//s3.amazonaws.com/donovanbailey/products/api_featured_images/000/000/454/original/data?1514062281"
    },
    {
      "id": 17,
      "brand": "e.l.f.",
      "name": "e.l.f. Studio Blush Palette Light",
      "image_link": "//s3.amazonaws.com/donovanbailey/products/api_featured_images/000/000/441/original/data?1514063325"
    },
    {
      "id": 18,
      "brand": "pure anada",
      "name": "Pure Anada Pressed Mineral Cheek Colour Pan",
      "image_link": "//s3.amazonaws.com/donovanbailey/products/api_featured_images/000/000/437/original/data?1514063324"
    },
    {
      "id": 19,
      "brand": "e.l.f.",
      "name": "e.l.f. Studio Contouring Blush & Bronzing Powder",
      "image_link": "//s3.amazonaws.com/donovanbailey/products/api_featured_images/000/000/431/original/data?1514063328"
    },
    {
      "id": 20,
      "brand": "e.l.f.",
      "name": "e.l.f. Studio Lip Primer & Plumper",
      "image_link": "//s3.amazonaws.com/donovanbailey/products/api_featured_images/000/000/395/original/data?1514063318"
    },
    {
      "id": 21,
      "brand": "sante",
      "name": "Sante Lip Duo Contour and Gloss Pencil",
      "image_link": "//s3.amazonaws.com/donovanbailey/products/api_featured_images/000/000/392/original/open-uri20171223-4-jjp4xg?1514063318"
    },
    {
      "id": 22,
      "brand": "e.l.f.",
      "name": "e.l.f. Studio HD Mattifying Cream Foundation",
      "image_link": "//s3.amazonaws.com/donovanbailey/products/api_featured_images/000/000/378/original/data?1514063313"
    },
    {
      "id": 23,
      "brand": "mineral fusion",
      "name": "Mineral Fusion Sheer Tint Foundation",
      "image_link": "//s3.amazonaws.com/donovanbailey/products/api_featured_images/000/000/377/original/data?1514063317"
    },
    {
      "id": 24,
      "brand": "e.l.f.",
      "name": "e.l.f. Studio Flawless Finish Foundation",
      "image_link": "//s3.amazonaws.com/donovanbailey/products/api_featured_images/000/000/322/original/data?1514063300"
    },
    {
      "id": 25,
      "brand": "e.l.f.",
      "name": "e.l.f. Studio Tinted Moisturizer",
      "image_link": "//s3.amazonaws.com/donovanbailey/products/api_featured_images/000/000/315/original/data?1514063300"
    },
    {
      "id": 26,
      "brand": "e.l.f.",
      "name": "e.l.f. Studio Baked Eyeshadow Trio ",
      "image_link": "//s3.amazonaws.com/donovanbailey/products/api_featured_images/000/000/312/original/data?1514063299"
    },
    {
      "id": 27,
      "brand": "sante",
      "name": "Sante Eyeshadow Trio",
      "image_link": "//s3.amazonaws.com/donovanbailey/products/api_featured_images/000/000/308/original/data?1514063298"
    },
    {
      "id": 28,
      "brand": "e.l.f.",
      "name": "e.l.f. Essential Little Black Beauty Book Eye Edition",
      "image_link": "//s3.amazonaws.com/donovanbailey/products/api_featured_images/000/000/304/original/data?1514063297"
    },
    {
      "id": 29,
      "brand": "pacifica",
      "name": "Pacifica Super Powder Supernatural Eye Shadow Trio",
      "image_link": "//s3.amazonaws.com/donovanbailey/products/api_featured_images/000/000/294/original/open-uri20171223-4-x32sju?1514063298"
    },
    {
      "id": 30,
      "brand": "pacifica",
      "name": "Pacifica Mystical Supernatural Eye Shadow Palette",
      "image_link": "//s3.amazonaws.com/donovanbailey/products/api_featured_images/000/000/288/original/data?1514063294"
    },
    {
      "id": 31,
      "brand": "e.l.f.",
      "name": "e.l.f. Studio Prism Eyeshadow",
      "image_link": "//s3.amazonaws.com/donovanbailey/products/api_featured_images/000/000/284/original/data?1514063294"
    },
    {
      "id": 32,
      "brand": "pacifica",
      "name": "Pacifica Enlighten Eye Brightening Shadow Palette",
      "image_link": "//s3.amazonaws.com/donovanbailey/products/api_featured_images/000/000/283/original/data?1514063293"
    },
    {
      "id": 33,
      "brand": "pacifica",
      "name": "Pacifica Radiant Shimmer Highlighting Creams For Eyes Lips Face",
      "image_link": "//s3.amazonaws.com/donovanbailey/products/api_featured_images/000/000/278/original/data?1514063324"
    },
    {
      "id": 34,
      "brand": "pure anada",
      "name": "Pure Anada Pressed Mineral Eye Color Pan",
      "image_link": "//s3.amazonaws.com/donovanbailey/products/api_featured_images/000/000/275/original/data?1514063291"
    },
    {
      "id": 35,
      "brand": "pacifica",
      "name": "Pacifica Natural Minerals Solar Complete Color Mineral Palette",
      "image_link": "//s3.amazonaws.com/donovanbailey/products/api_featured_images/000/000/274/original/data?1514063328"
    },
    {
      "id": 36,
      "brand": "pacifica",
      "name": "Pacifica Natural Eye Pencil",
      "image_link": "//s3.amazonaws.com/donovanbailey/products/api_featured_images/000/000/248/original/data?1514063284"
    },
    {
      "id": 37,
      "brand": "sante",
      "name": "Sante Kajal Eyeliner Pencil",
      "image_link": "//s3.amazonaws.com/donovanbailey/products/api_featured_images/000/000/234/original/open-uri20171223-4-1tzjkro?1514062286"
    },
    {
      "id": 38,
      "brand": "pacifica",
      "name": "Pacifica Natural Minerals Smolder Eye Lining Gel",
      "image_link": "//s3.amazonaws.com/donovanbailey/products/api_featured_images/000/000/188/original/data?1514063296"
    },
    {
      "id": 39,
      "brand": "e.l.f.",
      "name": "e.l.f. Studio Eyeliner & Shadow Stick ",
      "image_link": "//s3.amazonaws.com/donovanbailey/products/api_featured_images/000/000/182/original/data?1514063295"
    },
    {
      "id": 40,
      "brand": "e.l.f.",
      "name": "e.l.f. Studio Precision Liquid Eyeliner",
      "image_link": "//s3.amazonaws.com/donovanbailey/products/api_featured_images/000/000/180/original/data?1514062276"
    },
    {
      "id": 41,
      "brand": "mineral fusion",
      "name": "Mineral Fusion Sheer Moisture Lip Tint",
      "image_link": "//s3.amazonaws.com/donovanbailey/products/api_featured_images/000/000/101/original/data?1514063310"
    },
    {
      "id": 42,
      "brand": "pacifica",
      "name": "Pacifica Devocean Natural Lipstick Deeply Devoted Creamy Color",
      "image_link": "//s3.amazonaws.com/donovanbailey/products/api_featured_images/000/000/071/original/open-uri20171223-4-1b53nbg?1514062255"
    },
    {
      "id": 43,
      "brand": "e.l.f.",
      "name": "e.l.f. Studio Matte Lip Color",
      "image_link": "//s3.amazonaws.com/donovanbailey/products/api_featured_images/000/000/061/original/data?1514062255"
    },
    {
      "id": 44,
      "brand": "e.l.f.",
      "name": "e.l.f. Studio Moisturizing Lipstick",
      "image_link": "//s3.amazonaws.com/donovanbailey/products/api_featured_images/000/000/056/original/data?1514062254"
    },
    {
      "id": 45,
      "brand": "e.l.f.",
      "name": "e.l.f. Studio Lengthening & Volumizing Mascara",
      "image_link": "//s3.amazonaws.com/donovanbailey/products/api_featured_images/000/000/037/original/data?1514062252"
    },
    {
      "id": 46,
      "brand": "e.l.f.",
      "name": "e.l.f. Studio Waterproof Lengthening & Volumizing Mascara",
      "image_link": "//s3.amazonaws.com/donovanbailey/products/api_featured_images/000/000/026/original/data?1514061111"
    },
    {
      "id": 47,
      "brand": "e.l.f.",
      "name": "e.l.f. Studio Mineral Infused Mascara",
      "image_link": "//s3.amazonaws.com/donovanbailey/products/api_featured_images/000/000/022/original/data?1514061108"
    },
    {
      "id": 48,
      "brand": "suncoat",
      "name": "Suncoat Sugar-Based Mascara",
      "image_link": "//s3.amazonaws.com/donovanbailey/products/api_featured_images/000/000/017/original/data?1514061110"
    },
    {
      "id": 49,
      "brand": "pacifica",
      "name": "Pacifica Aquarian Gaze Water-Resistant Mascara",
      "image_link": "//s3.amazonaws.com/donovanbailey/products/api_featured_images/000/000/016/original/data?1514063333"
    },
    {
      "id": 50,
      "brand": "pacifica",
      "name": "Pacifica Stellar Gaze Length & Strength Mineral Mascara",
      "image_link": "//s3.amazonaws.com/donovanbailey/products/api_featured_images/000/000/005/original/data?1514061107"
    }
  ],
  "MakeupApiDetail": [
    {
      "id": 1,
      "brand": "colourpop",
      "name": "Lippie Pencil",
      "image_link": "//s3.amazonaws.com/donovanbailey/products/api_featured_images/000/001/048/original/open-uri20180708-4-13okqci?1531093614",
      "description": "Lippie Pencil A long-wearing and high-intensity lip pencil that glides on easily and prevents feathering. Many of our Lippie Stix have a coordinating Lippie Pencil designed to compliment it perfectly, but feel free to mix and match!",
      "product_type": "lip liner",
      "product_colors": [
        {
          "hexvalue": "#B28378",
          "colorname": "BFF Pencil"
        },
        {
          "hexvalue": "#A36B5E",
          "colorname": "951 Pencil"
        },
        {
          "hexvalue": "#966A60",
          "colorname": "Beeper Pencil"
        },
        {
          "hexvalue": "#8F5954",
          "colorname": "Oh Snap Pencil"
        },
        {
          "hexvalue": "#975348",
          "colorname": "Curvii Pencil"
        },
        {
          "hexvalue": "#865B69",
          "colorname": "Lumiere Pencil"
        },
        {
          "hexvalue": "#8E474D",
          "colorname": "Bumble Pencil"
        },
        {
          "hexvalue": "#5F2820",
          "colorname": "BFF Pencil 3"
        },
        {
          "hexvalue": "#DFAC9B",
          "colorname": "Toy Pencil"
        },
        {
          "hexvalue": "#AB7164",
          "colorname": "BFF Pencil 2"
        }
      ]
    },
    {
      "id": 2,
      "brand": "colourpop",
      "name": "Blotted Lip",
      "image_link": "//s3.amazonaws.com/donovanbailey/products/api_featured_images/000/001/047/original/open-uri20180708-4-e7idod?1531087336",
      "description": "Blotted Lip Sheer matte lipstick that creates the perfect popsicle pout! Formula is lightweight, matte and buildable for light to medium coverage.",
      "product_type": "lipstick",
      "product_colors": [
        {
          "hexvalue": "#b72227",
          "colorname": "Bee's Knees"
        },
        {
          "hexvalue": "#BB656B",
          "colorname": "Brain Freeze"
        },
        {
          "hexvalue": "#8E4140",
          "colorname": "Drip"
        },
        {
          "hexvalue": "#A12A33",
          "colorname": "On a Stick"
        },
        {
          "hexvalue": "#904550",
          "colorname": "Ice Cube"
        },
        {
          "hexvalue": "#452222",
          "colorname": "Lolly"
        },
        {
          "hexvalue": "#7C3F35",
          "colorname": "Candyfloss"
        }
      ]
    },
    {
      "id": 3,
      "brand": "colourpop",
      "name": "Lippie Stix",
      "image_link": "//s3.amazonaws.com/donovanbailey/products/api_featured_images/000/001/046/original/open-uri20180708-4-1f333k1?1531086651",
      "description": "Lippie Stix Formula contains Vitamin E, Mango, Avocado, and Shea butter for added comfort and moisture. None of our Lippie formulas contain any nasty ingredients like Parabens or Sulfates.",
      "product_type": "lipstick",
      "product_colors": [
        {
          "hexvalue": "#F2DEC3",
          "colorname": "Fair 05"
        },
        {
          "hexvalue": "#793C36",
          "colorname": "Ziggie"
        },
        {
          "hexvalue": "#723739",
          "colorname": "Goldie"
        },
        {
          "hexvalue": "#BF3A30",
          "colorname": "Love Life"
        },
        {
          "hexvalue": "#94372D",
          "colorname": "Who Run this"
        },
        {
          "hexvalue": "#9E574D",
          "colorname": "Aquarius"
        },
        {
          "hexvalue": "#C68176",
          "colorname": "Brink"
        },
        {
          "hexvalue": "#AA6968",
          "colorname": "Cami"
        },
        {
          "hexvalue": "#E28474",
          "colorname": "Sike"
        },
        {
          "hexvalue": "#9A2B24",
          "colorname": "Fly-Fi"
        },
        {
          "hexvalue": "#B97271",
          "colorname": "Goal Digger"
        },
        {
          "hexvalue": "#975450",
          "colorname": "Kapish"
        }
      ]
    },
    {
      "id": 4,
      "brand": "colourpop",
      "name": "No Filter Foundation",
      "image_link": "//s3.amazonaws.com/donovanbailey/products/api_featured_images/000/001/045/original/open-uri20180708-4-4bvqii?1531074237",
      "description": "Developed for the Selfie Age, our buildable full coverage, natural matte foundation delivers flawless looking skin from day-to-night. The oil-free, lightweight formula blends smoothly and is easily customizable to create the coverage you want. Build it up or sheer it out, it was developed with innovative soft-blurring pigments to deliver true color while looking and feeling natural. The lockable pump is easy to use and keeps your routine mess-free! As always, 100% cruelty-free and vegan.",
      "product_type": "foundation",
      "product_colors": [
        {
          "hexvalue": "#F2DEC3",
          "colorname": "Fair 05"
        },
        {
          "hexvalue": "#F3DAC4",
          "colorname": "Fair 10"
        },
        {
          "hexvalue": "#F1D9C0",
          "colorname": "Fair 15"
        },
        {
          "hexvalue": "#EFD2BA",
          "colorname": "Fair 20"
        },
        {
          "hexvalue": "#F1D7B3",
          "colorname": "Fair 25"
        },
        {
          "hexvalue": "#AC8875",
          "colorname": "Deep Dark 115"
        },
        {
          "hexvalue": "#A07967",
          "colorname": "Deep Dark 115"
        },
        {
          "hexvalue": "#946D5A",
          "colorname": "Deep Dark 115"
        },
        {
          "hexvalue": "#865F4D",
          "colorname": "Deep Dark 115"
        },
        {
          "hexvalue": "#896A5A",
          "colorname": "Deep Dark 80"
        },
        {
          "hexvalue": "#795F52",
          "colorname": "Deep Dark 80"
        },
        {
          "hexvalue": "#6B5148",
          "colorname": "Deep Dark 80"
        }
      ]
    },
    {
      "id": 5,
      "brand": "deciem",
      "name": "Serum Foundation",
      "image_link": "//s3.amazonaws.com/donovanbailey/products/api_featured_images/000/001/043/original/open-uri20180706-4-nszgw9?1530919194",
      "description": "Serum Foundations are lightweight medium-coverage formulations available in a comprehensive shade range across 21 shades. These foundations offer moderate coverage that looks natural with a very lightweight serum feel. They are very low in viscosity and are dispensed with the supplied pump or with the optional glass dropper available for purchase separately if preferred.",
      "product_type": "foundation",
      "product_colors": [
        {
          "hexvalue": "#f4e5d6",
          "colorname": "1.0P"
        },
        {
          "hexvalue": "#f3e8d1",
          "colorname": "1.0N"
        },
        {
          "hexvalue": "#dcc399",
          "colorname": "2.0YG"
        },
        {
          "hexvalue": "#ddb279",
          "colorname": "2.1P"
        },
        {
          "hexvalue": "#dcad6d",
          "colorname": "2.1Y"
        },
        {
          "hexvalue": "#d59c62",
          "colorname": "3.0R"
        },
        {
          "hexvalue": "#d19e61",
          "colorname": "3.0Y"
        },
        {
          "hexvalue": "#b3754a",
          "colorname": "3.1R"
        },
        {
          "hexvalue": "#c28651",
          "colorname": "3.1Y"
        },
        {
          "hexvalue": "#916C4F",
          "colorname": "3.2N"
        },
        {
          "hexvalue": "#8E6346",
          "colorname": "3.2R"
        },
        {
          "hexvalue": "#664A37",
          "colorname": "3.3N"
        }
      ]
    },
    {
      "id": 6,
      "brand": "deciem",
      "name": "Coverage Foundation",
      "image_link": "//s3.amazonaws.com/donovanbailey/products/api_featured_images/000/001/042/original/open-uri20180706-4-1e74943?1530916234",
      "description": "Coverage Foundations are full-coverage formulations available in a comprehensive shade range across 21 shades. These foundations contain higher pigment levels than our Serum Foundations but still offer a smooth finish that avoids the heavy makeup look that can make skin appear more aged. The texture is that of a lightweight, non-oily cream.",
      "product_type": "foundation",
      "product_colors": [
        {
          "hexvalue": "#f4e5d6",
          "colorname": "1.0P"
        },
        {
          "hexvalue": "#f3e8d1",
          "colorname": "1.0N"
        },
        {
          "hexvalue": "#dcc399",
          "colorname": "2.0YG"
        },
        {
          "hexvalue": "#ddb279",
          "colorname": "2.1P"
        },
        {
          "hexvalue": "#dcad6d",
          "colorname": "2.1Y"
        },
        {
          "hexvalue": "#d59c62",
          "colorname": "3.0R"
        },
        {
          "hexvalue": "#d19e61",
          "colorname": "3.0Y"
        },
        {
          "hexvalue": "#b3754a",
          "colorname": "3.1R"
        },
        {
          "hexvalue": "#c28651",
          "colorname": "3.1Y"
        },
        {
          "hexvalue": "#916C4F",
          "colorname": "3.2N"
        },
        {
          "hexvalue": "#8E6346",
          "colorname": "3.2R"
        },
        {
          "hexvalue": "#664A37",
          "colorname": "3.3N"
        }
      ]
    },
    {
      "id": 7,
      "brand": "rejuva minerals",
      "name": "Multi Purpose Powder - Eye Shadow & Face",
      "image_link": "//s3.amazonaws.com/donovanbailey/products/api_featured_images/000/001/034/original/open-uri20180630-4-1n63e1y?1530390382",
      "description": "Our Multi Purpose Pressed Powders may be used as eye shadow, brow powder, eye liner, or for highlighting. Blended with antioxidants from Certified Organic Fruits, Berries &amp; Botanicals*. No gluten derived ingredients. VEGAN. All shades will offer a semi-matte finish, with the exception of White Diamond. White Diamond will offer a shimmery finish. Image one shows shade in Iris. This product is EWG VERIFIED&#x2122; and rated 'CLEAN' in the Think Dirty app! BPA and Phthalate free packaging. Plastic parts of compacts are recyclable.",
      "product_type": "eyeshadow",
      "product_colors": [
        {
          "hexvalue": "#F7F8F3",
          "colorname": "White Diamond"
        },
        {
          "hexvalue": "#E8B49B",
          "colorname": "Tropical Sunset"
        },
        {
          "hexvalue": "#292627",
          "colorname": "Moonless Night"
        },
        {
          "hexvalue": "#A17E69",
          "colorname": "Mocha Latte"
        },
        {
          "hexvalue": "#8C666E",
          "colorname": "Iris"
        },
        {
          "hexvalue": "#615349",
          "colorname": "Brazillian Brown"
        },
        {
          "hexvalue": "#F7DEC4",
          "colorname": "Beach Bum"
        }
      ]
    },
    {
      "id": 8,
      "brand": "rejuva minerals",
      "name": "Bronzer - loose",
      "image_link": "//s3.amazonaws.com/donovanbailey/products/api_featured_images/000/001/032/original/open-uri20180630-4-1bl3btv?1530390381",
      "description": "Caribbean is a multi-purpose shade that is suitable for medium-tan skin tones. This shade may be used as a bronzer, or as a contour shade. Our bronzer has been enhanced with Fruits, Botanicals and Clays for their natural color, fragrance and antioxidant benefits!Blended with Certified Organics Fruits and Botanicals Formulated with common skin irritants.Our bronzer will offer a natural “ultra sheer” semi-matte finish.Made without any gluten containing ingredients VEGAN!Eco Friendly jars!",
      "product_type": "bronzer",
      "product_colors": [
        {
          "hexvalue": "#A37948",
          "colorname": "Caribbean"
        }
      ]
    },
    {
      "id": 9,
      "brand": "rejuva minerals",
      "name": "Bronzer - pressed",
      "image_link": "//s3.amazonaws.com/donovanbailey/products/api_featured_images/000/001/031/original/open-uri20180630-4-1axfay6?1530390380",
      "description": "Our bronzer has been enhanced with Fruits, Botanicals and Clays for their natural color, fragrance and antioxidant benefits! Blended with Certified Organics Fruits and Botanicals Formulated with common skin irritants. Our bronzer will offer a natural 'ultra sheer' semi-matte finish. Made without any gluten containing ingredients VEGAN! Eco Friendly jars!",
      "product_type": "bronzer",
      "product_colors": [
        {
          "hexvalue": "#DDA983",
          "colorname": "St Tropez"
        },
        {
          "hexvalue": "#9C7248",
          "colorname": "Bahama Mama"
        }
      ]
    },
    {
      "id": 10,
      "brand": "penny lane organics",
      "name": "Lip Gloss",
      "image_link": "//s3.amazonaws.com/donovanbailey/products/api_featured_images/000/001/030/original/open-uri20180630-4-ucbwbt?1530390380",
      "description": "For fuller healthier lips! Long lasting colour! This colour is a good choice for any skin tone. It can be made lighter by wiping some off after application.Please note that our Vitamin E is extracted from non-GMO soy bean oil and therefore is gluten-free.",
      "product_type": "lipstick",
      "product_colors": [
        {
          "hexvalue": "#2F1513",
          "colorname": "Black Cherry"
        },
        {
          "hexvalue": "#4F1314",
          "colorname": "Fiery Red"
        },
        {
          "hexvalue": "#6F2633",
          "colorname": "Pearl Pink"
        },
        {
          "hexvalue": "#B05665",
          "colorname": "Pink Shimmer"
        },
        {
          "hexvalue": "#783F30",
          "colorname": "Sunset Bronze"
        },
        {
          "hexvalue": "#511617",
          "colorname": "Sweet Cherry"
        },
        {
          "hexvalue": "#8E2432",
          "colorname": "Tropical Fuschia"
        }
      ]
    },
    {
      "id": 11,
      "brand": "marienatie",
      "name": "Lipstick",
      "image_link": "//s3.amazonaws.com/donovanbailey/products/api_featured_images/000/001/023/original/open-uri20180630-4-149dwc3?1530390375",
      "description": "A pure and creamy lipstick by MarieNatie formulated with organic jojoba, avocado, and coconut oil which are rich in anti-oxidants and have moisturizing benefits. Enriched with naturally derived organic mango and cocoa butters that will soothe, hydrate and regenerate dry lips.",
      "product_type": "lipstick",
      "product_colors": [
        {
          "hexvalue": "#9D5E4F",
          "colorname": "Evelyn"
        },
        {
          "hexvalue": "#B03B3E",
          "colorname": "Rosie"
        },
        {
          "hexvalue": "#9A1C24",
          "colorname": "Giselle"
        },
        {
          "hexvalue": "#B4556E",
          "colorname": "Ava"
        }
      ]
    },
    {
      "id": 12,
      "brand": "marienatie",
      "name": "Gel Liner",
      "image_link": "//s3.amazonaws.com/donovanbailey/products/api_featured_images/000/001/021/original/open-uri20180630-4-10sgmvz?1530390373",
      "description": "This smooth and creamy formula from MarieNatie will provide a silky soft and non-oily finish. It glides on evenly to deliver immediate results.",
      "product_type": "eyeliner",
      "product_colors": [
        {
          "hexvalue": "#000000",
          "colorname": "Black"
        }
      ]
    },
    {
      "id": 13,
      "brand": "alva",
      "name": "Liquid Eye Shadow",
      "image_link": "//s3.amazonaws.com/donovanbailey/products/api_featured_images/000/001/005/original/open-uri20180630-4-1eau5wj?1530390360",
      "description": "Our Liquid Edition Eye Shadows have been a real winner since their launch and are a real first of their kind in natural and organic make-up. Whether you're looking for a striking or glamorous look for night time, or something more subtle and natural for wearing during the day, there is a shade for everyone. They dry quickly, and depending on the depth of colour desired, can be blended in on application or left to dry before blending for a more vivid look. Layering is also possible, but however you choose to use these liquid eye shadows they won't gather in crow's feet or fine lines around the eyes. The inclusion of patented beta glucan also means they're perfect for sensitive eyes. Pale Almond is subtle, natural, and perfect for daytime wear, and compliments our Bronzed Hazel liquid eye shadow if a duo tone is desired.",
      "product_type": "eyeshadow",
      "product_colors ": [
        {
          "hexvalue": "#B8A89A",
          "colorname": "Pale Almond"
        }
      ]
    },
    {
      "id": 14,
      "brand": "milani",
      "name": "Milani Baked Bronzer ",
      "image_link": "//s3.amazonaws.com/donovanbailey/products/api_featured_images/000/000/485/original/open-uri20171223-4-14pkodz?1514063329",
      "description": "Crafted on Italian terracotta tiles, these sunbaked bronzers are all about a swirly, shimmery, streak-free glow. Available in five shades, from soft gold to tantalizingly tan, it can be dusted on eyes, face, body – anywhere and everywhere you want to glow.Features:Multi-purpose powder for eyes, face & bodyEasy to use and streak-free for a perfect radiant finishAttractive, shiny gold compactMirror & brush applicator includedStreak-freeApplication: Glide brush over color and lightly tap off excess powder. Lightly apply to cheeks, forehead, chin and/or nose and blend well for a soft glow. Ingredients: Talc, Mica, Dimethicone, Octyldodecyl Stearoyl Stearate, Polysorbate 20, Magnesium Aluminum Silicate Phenoxyethanol, Sodium Dehydroacetate, Tocopheryl Acetate, Cetearyl Ethylhexanoate, Ethylhexyl Methoxycinnamate, Simmondsia Chinensis (Jojoba) Seed Oil, Acrylamide/Sodium Acryloyldimethyl Taurate Copolymer, Isohexadecane, Polysorbate 80, Sorbitan Stearate, Zea Mays (Corn) Starch, Titanium Dioxide (CI 77891), Iron Oxides (CI 77491, CI 77492, CI 77499).",
      "product_type": "bronzer",
      "product_colors": [
        {
          "hexvalue": "#AA644B",
          "colorname": "Soleil (Medium Bronzed Tan with Gold Shimmer)  "
        },
        {
          "hexvalue": "#BA8265",
          "colorname": "Warm Peache"
        }
      ]
    },
    {
      "id": 15,
      "brand": "e.l.f.",
      "name": "e.l.f. Studio Bronzer",
      "image_link": "//s3.amazonaws.com/donovanbailey/products/api_featured_images/000/000/478/original/data?1514063328",
      "description": "Create a healthy looking glow all year round!  The sheer soft powders \nprovide the perfect hue of color.  Blend all 4 colors together to \nachieve a blend of perfection or choose your favorite color or colors to\n mix, match and blend.Golden Bronzer: An illuminating shimmer that is subtle and radiant.  Ideal for summer or year-round.\n\n\t\t\t\t\tIngredients: Talc, Paraffinum Liquidum (Mineral Oil), Magnesium Stearate, \nHydrogenated Polyisobutene, Sodium Dehydroacetate\nMay Contain: Mica, Titanium Dioxide (CI 77891), Iron Oxides (CI 77491, \nCI 77492, CI 77499), Red 7 Lake (CI 15850), Blue 1 Lake (CI 42090), Red \n40 Lake (CI 16035)\n.",
      "product_type": "bronzer",
      "product_colors": [
        {
          "hexvalue": "#C3A785",
          "colorname": "color 1"
        },
        {
          "hexvalue": "#DBBDAD",
          "colorname": "color 2"
        },
        {
          "hexvalue": "#DEC8B4",
          "colorname": "color 3"
        },
        {
          "hexvalue": "#BD9F87",
          "colorname": "color 4"
        }
      ]
    },
    {
      "id": 16,
      "brand": "e.l.f.",
      "name": "e.l.f. Studio Blush Palette Dark",
      "image_link": "//s3.amazonaws.com/donovanbailey/products/api_featured_images/000/000/454/original/data?1514062281",
      "description": "This beautiful blush palette holds 4 gorgeous shades to mix and match \nthroughout the year for a custom blended color. Great for contouring, \nshading, sculpting, and highlighting, these silky smooth blushes create a\n beautiful pigmented glow. With a mixture of complimentary matte and \nshimmer finishes, you can achieve a professional look every time.Ingredients: Mica, Talc, Ethylhexyl Palmitate, Silica, Nylon-12, PTFE, Zince Stearate, Dimethicone, Tocopheryl Acetate (Ve).\nMAY CONTAIN: Titanium Dioxide (CI 77891), Iron OXides (CI 77491, \nCI 77492, CI 77499), Red 7 Lake (CI 15850), Ultramarines (CI 77007), Red\n 6 Lake (CI 15850), Red 28 Lake (CI 45410). ",
      "product_type": "blush",
      "product_colors": [
        {
          "hexvalue": "#DE7E73",
          "colorname": "color 1"
        },
        {
          "hexvalue": "#D67088",
          "colorname": "color 2"
        },
        {
          "hexvalue": "#BB5C5C",
          "colorname": "color 3"
        },
        {
          "hexvalue": "#99504D",
          "colorname": "color 4"
        }
      ]
    },
    {
      "id": 17,
      "brand": "e.l.f.",
      "name": "e.l.f. Studio Blush Palette Light",
      "image_link": "//s3.amazonaws.com/donovanbailey/products/api_featured_images/000/000/441/original/data?1514063325",
      "description": "This beautiful blush palette holds 4 gorgeous shades to mix and match \nthroughout the year for a custom blended color. Great for contouring, \nshading, sculpting, and highlighting, these silky smooth blushes create a\n beautiful pigmented glow. With a mixture of complimentary matte and \nshimmer finishes, you can achieve a professional look every time.Ingredients: Mica, Talc, Ethylhexyl Palmitate, Silica, Nylon-12, PTFE, Zince Stearate, Dimethicone, Tocopheryl Acetate (Ve).\nMAY CONTAIN: Titanium Dioxide (CI 77891), Iron OXides (CI 77491, \nCI 77492, CI 77499), Red 7 Lake (CI 15850), Ultramarines (CI 77007), Red\n 6 Lake (CI 15850), Red 28 Lake (CI 45410). ",
      "product_type": "blush",
      "product_colors": [
        {
          "hexvalue": "#EA8DA4",
          "colorname": "color 1"
        },
        {
          "hexvalue": "#D58A68",
          "colorname": "color 2"
        },
        {
          "hexvalue": "#CC646C",
          "colorname": "color 3"
        },
        {
          "hexvalue": "#E3756F",
          "colorname": "color 4"
        }
      ]
    },
    {
      "id": 18,
      "brand": "pure anada",
      "name": "Pure Anada Pressed Mineral Cheek Colour Pan",
      "image_link": "//s3.amazonaws.com/donovanbailey/products/api_featured_images/000/000/437/original/data?1514063324",
      "description": "Pure Anada is pleased to bring you a lovely selection of convenient pressed mineral colors!    You’ll love the silky texture and longevity of these highly wearable cheek colors.Mineral pigments and organic Jojoba are pressed together to create a natural makeup product. You can have confidence that you are making a beautiful, healthy choice!Pure Anada pressed colors are designed to be inserted into customizable magnetic compacts like the Pure Ananda Reusable Magnetic Compact. Design your own palette!  Shades:Ingredients: Mica (CI 77019), Iron Oxides (CI 77492, CI 77499) Calcium Carbonate, Caprylic Triglyceride *Simmondsia Chinensis (Jojoba seed oil) Ultramarines (CI 77007), Titanium Dioxide (CI 77891) * Certified Organic IngredientVegan, Gluten Free, Non-GMO, Dairy Free, Peanut Free, Natural.",
      "product_type": "blush",
      "product_colors": [
        {
          "hexvalue": "#d88a66",
          "colorname": "Bronzed Clove "
        },
        {
          "hexvalue": "#b9484a",
          "colorname": "Day Lily (Demi-Matte Burgundy) "
        },
        {
          "hexvalue": "#f47892",
          "colorname": "Forever Summer\t (Demi-Matte Coral Pink) "
        },
        {
          "hexvalue": "#ee7f66",
          "colorname": "Fresh Mandarin "
        },
        {
          "hexvalue": "#c14c38",
          "colorname": "Lush Nectarine (Demi-Matte Apricot) "
        },
        {
          "hexvalue": "#e06989",
          "colorname": "Strawberry Field  "
        },
        {
          "hexvalue": "#f39f94",
          "colorname": "Sweet Pea "
        },
        {
          "hexvalue": "#e07b78",
          "colorname": "Tender Twig "
        }
      ]
    },
    {
      "id": 19,
      "brand": "e.l.f.",
      "name": "e.l.f. Studio Contouring Blush & Bronzing Powder",
      "image_link": "//s3.amazonaws.com/donovanbailey/products/api_featured_images/000/000/431/original/data?1514063328",
      "description": "Create a healthy and natural glow all year long with this e.l.f. Studio Contouring Blush & Bronzing Powder.  The Blush highlights the cheeks to add a \nflush of color, while the Bronzer accents and contours cheekbones for \nbeautiful definition. This convenient compact has just what you need to \nachieve a gorgeous glow anytime, anywhere.St. Lucia Shade: How to Use: Brush on the \"bronze\" to the hollow of the cheeks for definition and \ndust around the face line to create a healthy glow.  Use the \"blush\" on \nthe apple of the cheeks to create a subtle healthy glow.Ingredients: Talc, Mica, Magnesium Stearate, Ethylhexyl Methoxycinnamate, Paraffinium\n Liquidum (Mineral Oil), Hydrogenated Polyisobutene, Sodium \nDehydroacetate, Iron Oxides (CI 77491 CI 77492 CI 77499), Titanium \nDioxide (CI 77981), Red No.40 Lake (CI 16035), Ultramarine Blue (CI \n77007.",
      "product_type": "bronzer",
      "product_colors": [
        {
          "hexvalue": "#C89282",
          "colorname": "color 1"
        },
        {
          "hexvalue": "#876A51",
          "colorname": "color 2"
        }
      ]
    },
    {
      "id": 20,
      "brand": "e.l.f.",
      "name": "e.l.f. Studio Lip Primer & Plumper",
      "image_link": "//s3.amazonaws.com/donovanbailey/products/api_featured_images/000/000/395/original/data?1514063318",
      "description": "Achieve longer lasting lip color and sexy plumped lips with e.l.f. Studio Lip Primer & Plumper.  The Primer \ncreates a base for lip color for no budge, no smudge pigment that lasts \nall day.  The cinnamon scented Plumper enhances your lips with a subtle \nplumping tingle effect for fuller, larger looking lips.How to Use: \n\t\t\t\t\t\n\t\t\t\t\tApply the \"prime\" to bare lips and\n blend in to help hold color to the lips all day.  Use the \"plump\" alone\n or on top of primer or color to achieve a naturally fuller lip.  Ingredients: Ethylhexyl Palmitate, Talc, Ozokerite, Polyisobutene, Synthetic \nFluorphlogopite,  Bis-Diglyceryl polyacyladipate-2, Euphorbia Cerifera \n(Candelilla) Wax, Ceresin, Copernicia Cerifera (Carnauba) Wax, \nMicrocrystalline Wax (Cera Microcristallina), Tricontanyl PVP           \n           \nMay Contain: Titanium Dioxide (CI 77891), Iron Oxides (CI 77491, CI \n77492, CI 77499)                                                        \n          \n\n.",
      "product_type": "lip liner",
      "product_colors": []
    },
    {
      "id": 21,
      "brand": "sante",
      "name": "Sante Lip Duo Contour and Gloss Pencil",
      "image_link": "//s3.amazonaws.com/donovanbailey/products/api_featured_images/000/000/392/original/open-uri20171223-4-jjp4xg?1514063318",
      "description": "Sante Lip Duo Pencils have two products in one. A lipliner for perfect contours \nand lipgloss for a sexy finish. They come in trendy colors and have a moisturizing texture.  \nVegan and gluten-free. Not tested on animals.",
      "product_type": "lip liner",
      "product_colors": [
        {
          "hexvalue": "#93474f",
          "colorname": "No.3 Glamorous Look "
        }
      ]
    },
    {
      "id": 22,
      "brand": "e.l.f.",
      "name": "e.l.f. Studio HD Mattifying Cream Foundation",
      "image_link": "//s3.amazonaws.com/donovanbailey/products/api_featured_images/000/000/378/original/data?1514063313",
      "description": "This high-definition, oil-free, lightweight foundation is perfect for \nnormal to oily skin types. The cream-to-powder formula minimizes fine \nlines and leaves a natural, long-lasting, matte finish. Includes a \ncompact sponge for easy application and portable beauty.Shade Range: Ingredients: Ethylhexl Palmitate, Octyldodecanol, Synthetic Wax, Copernicia Cerifera \n(Carnauba) Wax, Caprylic/Capric Triglyceride, Tridecyl Trimellitate, \nMica, Nylon-12, Silica, Triacontanyl PVP, Polyglyceryl-4 Isostearate, \nPropylparaben, Tocopheryl Acetate MAY CONTAIN: Iron Oxides (CI \n77491, CI 77492, CI 77499), Manganese Violet (CI 77492), Red No. 33 Lake\n (CI 17200), Blue No. 1(CI 42090), Yellow No. 5 Lake (CI 19140), \nTitanium Dioxide (CI 77891), Red No.40 Lake (CI 16035), Chromium \nHydroxide Green (CI 77289). ",
      "product_type": "foundation",
      "product_colors": [
        {
          "hexvalue": "#ECB78F",
          "colorname": "Sand "
        }
      ]
    },
    {
      "id": 23,
      "brand": "mineral fusion",
      "name": "Mineral Fusion Sheer Tint Foundation",
      "image_link": "//s3.amazonaws.com/donovanbailey/products/api_featured_images/000/000/377/original/data?1514063317",
      "description": "Mineral Fusion Sheer Tint Foundation is a lightweight, hydrating foundation with a dewy finish that provides sheer coverage for a perfectly even skin tone.  The blend of Pomegranate, Red Tea, White Tea and Sea Kelp offer age-defying antioxidant protection to defend against free radical damage and give skin a healthy radiance.  This foundation is formulated with only the safest, most gentle ingredients plus the natural UV protection of minerals and skin soothing botanicals. Great for use on all skin types.Features:Sheer coverage for neutral skinFlawless CoverageAge-DefyingSkin SoothingFree of artificial colour or fragranceTalc freeHypo-allergenicCruelty FreeParaben FreePhthalate FreeIngredients: Water, Squalane (Olive), Tridecyl Neopentanoate, Titanium Dioxide, Propylene Glycol Dicaprylate/Dicaprate, Vegetable Glycerin, Cetearyl Alcohol, Polysorbate 80, Glyceryl Stearate SE, Cyclomethicone, Hydrogenated Polyisobutene, Dimethicone Crosspolymer-3, Sorbitol, Triethanolamine, Stearic Acid, Sorbitan Sesquioleate, Cetyl Alcohol, Dimethicone, Laureth-7, Magnesium Aluminum Silicate, Cyclopentasiloxane, Xanthan Gum, Hydroxyethyl Acrylate/Sodium Acryloyldimethyl Taurate Copolymer, Polysorbate 60, Cellulose Gum, PEG-12 Dimethicone, Carthamus Tinctorius (Safflower) Seed Oil, Vitis Vinifera (Grape) Seed Extract, Camellia Sinensis (White Tea) Leaf Extract, Aspalathus Linearis (Rooibos Red Tea) Leaf Extract, Punica Granatum (Pomegranate) Extract, Caprylic/Capric Triglyceride, Laminaria Ochroleuca (Sea Kelp) Extract, Gluconolactone, Sodium Benzoate. MAY CONTAIN (+/-): Iron Oxides.Vegan, Gluten Free.",
      "product_type": "foundation",
      "product_colors": [
        {
          "hexvalue": "#DBBDAD",
          "colorname": "color 2"
        },
        {
          "hexvalue": "#DEC8B4",
          "colorname": "color 3"
        },
        {
          "hexvalue": "#BD9F87",
          "colorname": "color 4"
        }
      ]
    },
    {
      "id": 24,
      "brand": "e.l.f.",
      "name": "e.l.f. Studio Flawless Finish Foundation",
      "image_link": "//s3.amazonaws.com/donovanbailey/products/api_featured_images/000/000/322/original/data?1514063300",
      "description": "Achieve a flawless complexion with the silky smooth e.l.f. Studio \nFlawless Finish Foundation. The lightweight and oil-free formula blends \nin naturally for a beautiful semi-matte finish. This liquid foundation \napplies easily and lasts all day for visibly brighter and radiant \nlooking skin. Using e.l.f.'s Flawless Finish Foundation not only restores \nuneven skin textures and tones, but most importantly, the SPF 15 \nprotects your skin against harmful sun damage!Shade Range: \n\t\t\t\t\t\t\n\t\t\t\t\t\n\t\t\t\t\tACTIVE INGREDIENTS:  Octyl Salicylate 2%,   Titanium Dioxide 5.5% INACTIVE INGREDIENTS:\n  Water (Aqua), Cyclopentasiloxane, Isododecane, Hydrogenated \nPolyisobutene, Cetyl PEG/PPG-10/1 Dimethicone, Polyglyceryl-4 \nIsostearate, Polymethyl Methacrylate, Sorbitan Sesquiisostearate, \nButylene Glycol, Talc, Dimethicone, Disteardimonium Hectorite, Magnesium\n Sulfate, Glycerin, Phenoxyethanol, Synthetic Beeswax, Potassium \nSorbate, Propylene Carbonate, Boron Nitride, Barium Sulfate, Caprylyl \nGlycol\nMay Contain: Iron Oxides (CI 77491, CI 77492, CI 77499)\n\n\t\t\t\t\t\n\t\t\t\t.",
      "product_type ": "foundation ",
      "product_colors": [
        {
          "hexvalue": "#F1C6A3",
          "colorname": "Porecelain "
        },
        {
          "hexvalue": "#E7B88E",
          "colorname": "Sand  "
        }
      ]
    },
    {
      "id": 25,
      "brand": "e.l.f.",
      "name": "e.l.f. Studio Tinted Moisturizer",
      "image_link": "//s3.amazonaws.com/donovanbailey/products/api_featured_images/000/000/315/original/data?1514063300",
      "description": "Achieve even skin tone \nand naturally radiant skin with this moisturizing sheer tint of color.  \nThe smooth formula enhances your complexion with the nourishing key \ningredients Aloe, Cucumber and Vitamins A, C & E.Shades: \n\t\t\t\t\t\t\n\t\t\t\t\t\n\t\t\t\t\tACTIVE: Benzophenone-3, Ethylhexyl Isopalmitate, Titanium Dioxide. \nINACTIVE: Water, Mineral Oil, Cyclomethicone, C12-15 Alkyl Benzoate, \nPropylene Glycol, Dimethicone, Steareth-21 Cetearyl Alcohol, \nCeteareth-2, Glyceryl Stearate, Xanthan Gum, Methylparaben, \nPropylparabem, Tocopherol(VE), Retinyl Acetate(VA), Ascorbyk \nPalmitate(VC), Aloe Barbadensis (Aloe Vera) Leaf Juice, Cucumis Sativus \n(Cucumber) Fruit Extract, MAY CONTAIN: Iron Oxides (CI 77491, CI 77492, \nCI 77499), Titanium Dioxide (CI 77891)\n\t\t\t\t\t\n\t\t\t\t.",
      "product_type": "foundation",
      "product_colors": [
        {
          "hexvalue": "#EFC698",
          "colorname": "Porecelain "
        },
        {
          "hexvalue": "#EBB579",
          "colorname": "Nude "
        },
        {
          "hexvalue": "#D99A67",
          "colorname": "Beige "
        }
      ]
    },
    {
      "id": 26,
      "brand": "e.l.f.",
      "name": "e.l.f. Studio Baked Eyeshadow Trio ",
      "image_link": "//s3.amazonaws.com/donovanbailey/products/api_featured_images/000/000/312/original/data?1514063299",
      "description": "Three gorgeously coordinated colors come together to create a stunning \nlook. Baked in an oven, these eyeshadows offer rich pigmentation for a \nbeautiful effect. Infused with active key ingredients Jojoba, Rose, \nSunflower, Apricot and Grape to nourish and hydrate the skin. The \nlong-lasting and shimmering color can be worn wet for a vibrant effect \nor dry for sheer pigmentation, offering a variety of gorgeous eye looks!Ingredients: Mica, Talc, Bismuth Oxychloride, \nEthylhexyl Palmitate, Paraffinum Liquidum (mineral oil), Dimethicone, \nMagnesium Aluminum Silicate, Tocopheryl Acetate, Simmondsia Chinensis \n(Jojoba) Seed Oil, Rosa Canina (Rose Hip) Fruit Oil, Helianthus Annuus \n(Sunflower) Seed Oil, Prunus Armeniaca (Apricot) Kernel Oil, Vitis \nVinifera (Grape) Seed Oil, Phenoxyethanol, Methylparaben. May Contain: \nTitanium Dioxide (CI 77891), Iron Oxides (CI 77491 , CI 77492 , CI \n77499), Ultramarine Violet (CI 77077), Manganese Violet (CI 77742), \nFerric Ferrocyanide (CI 77510), Tin Oxide (CI 77861), Yellow No.5 Lake \n(CI 19140), Red No.40 Lake (CI 16035), Blue No.1 Lake (CI 42090). ",
      "product_type": "eyeshadow",
      "product_colors": [
        {
          "hexvalue": "#A28D95",
          "colorname": "color 1"
        },
        {
          "hexvalue": "#96789F",
          "colorname": "color 2"
        },
        {
          "hexvalue": "#3B333D",
          "colorname": "color 3"
        }
      ]
    },
    {
      "id": 27,
      "brand": "sante",
      "name": "Sante Eyeshadow Trio",
      "image_link": "//s3.amazonaws.com/donovanbailey/products/api_featured_images/000/000/308/original/data?1514063298",
      "description": "Sante Eyeshadow Trios each have three complementary shades for your lid,\n crease and highlight. Plus they are formulated with organic jojoba and \nchamomile. Vegan and gluten-free. Not \ntested on animals.",
      "product_type": "eyeshadow",
      "product_colors": [
        {
          "hexvalue": "#C3B098",
          "colorname": "color 1"
        },
        {
          "hexvalue": "#908F7D",
          "colorname": "color 2"
        },
        {
          "hexvalue": "#534C42",
          "colorname": "color 3"
        }
      ]
    },
    {
      "id": 28,
      "brand": "e.l.f.",
      "name": "e.l.f. Essential Little Black Beauty Book Eye Edition",
      "image_link": "//s3.amazonaws.com/donovanbailey/products/api_featured_images/000/000/304/original/data?1514063297",
      "description": "This convenient 48-piece makeup collection for your eyes allows you to \nhave your Little Black Beauty Book readily available anytime, anywhere! \nKeep the Beauty Book in your purse, at home or in the office so you can \nbe your own makeup artist whenever, wherever. This full assortment of 48\n eyeshadow colors allows you to create a look that reflects your \npersonal style for any occasion. The small, sleek design is great for \non-the-go beauty touch ups. Each book includes: 48 gorgeous eyeshadow \nshades, a built-in mirror, and 1 dual-ended applicator.Ingredients: Talc, Mica, Zinc Stearate, Kaolin,\n Paraffinium Liquidum(Mineral Oil), Petrolatum, Bis-Diglyceryl \nPolyacyladipate-2, Methylparaben, Propylparaben. May Contain: Iron \nOxides (CI 77491 , CI 77492 , CI 77499), Manganese Violet (CI 77742), \nMica (CI 77019), Titanium Dioxide (CI 77891), Yellow No.5 Lake (CI \n19140), Red No.40 Lake (CI 16035), Ultramarine Violet (CI 77077), Blue \nNo.1 Lake (CI 42090) \n\t\t\t\t\t\n\t\t\t\t.",
      "product_type": "eyeshadow",
      "product_colors": [
        {
          "hexvalue": "#DBBDAD",
          "colorname": "color 1"
        },
        {
          "hexvalue": "#DEC8B4",
          "colorname": "color 2"
        },
        {
          "hexvalue": "#BD9F87",
          "colorname": "color 3"
        }
      ]
    },
    {
      "id": 29,
      "brand": "pacifica",
      "name": "Pacifica Super Powder Supernatural Eye Shadow Trio",
      "image_link": "//s3.amazonaws.com/donovanbailey/products/api_featured_images/000/000/294/original/open-uri20171223-4-x32sju?1514063298",
      "description": "Pacifica Super Powder Supernatural Eye Shadow Trio Breathless, Glowing, Sunset is an innovative natural eye shadow that applies like a cream and sets to a powder, allowing for a smooth, velvety application that blends easy and provides a long-lasting, creaseless, flawless finish. Anti-aging ingredients including jojoba and argan oils.Features:100% veganCruelty-freeFormulated witout carmine, FD&C color, parabens and petroleumIngredients: Simmondsia chinensis (jojoba) seed oil, euphoriba cerifera (candelill) wax, copernicia prunifera (carnauba) wax, butyrospermum parkii (shea butter), oryza sativa (rice starch), helianthus annuus (sunflower) seed oil, argania spinosa (argan) kernal oil, tocopherol (vitamin e), kaolin. May contain: titanium dioxides (ci 77492, ci 77491, ci 77499), ultramarines, manganese violet.",
      "product_type": "eyeshadow",
      "product_colors": [
        {
          "hexvalue": "#A3866F",
          "colorname": "color 1"
        },
        {
          "hexvalue": "#886649",
          "colorname": "color 2"
        },
        {
          "hexvalue": "#805451",
          "colorname": "color 3"
        }
      ]
    },
    {
      "id": 30,
      "brand": "pacifica",
      "name": "Pacifica Mystical Supernatural Eye Shadow Palette",
      "image_link": "//s3.amazonaws.com/donovanbailey/products/api_featured_images/000/000/288/original/data?1514063294",
      "description": "An incredibly innovative formula that pushes mineral makeup color to new\n bounds.  Rich, lasting, ceaseless eye shadows are infused with coconut \nwater for a velvety, cream-like finish.  These four highly pigmented \nmineral satin makeup and iridescent shades are specially curated are \ndesigned to brighten the eyes and make you look gorgeous and awake.  \n(Even when you did not get a good night's sleep!) Includes 4 Beautiful Shades:Opal - Opalescent pinkish-white perfect for highlighting and creating a natural look.  Use on brow bones, inner eye and even as a linerMoonbeam - Pearlescent greyish moody violet to use on lids or create a subtle smoky eyeCelestial - Creamy dreamy beige with a little bright pearl ideal for lids and highlightsStargazer - Heavenly hot blue-violet to smudge, smoke or line your eyesFeatures: Coconut infused long lasting eye shadows that apply easy with a velvety finishNatural mineral colorsRecyclable packaging100% vegan, No animal ingredients or testingFREE OF PARABENS, PHTHALATES, PETROLEUM, TALC, FD&C COLORS and other ingredients you don't want on your skinIngredients:Opal Ingredients: Mica, Zinc Stearate, Ethylhexyl Stearate(Plant Source), , Cocos Nucifera (Coconut) Oil, Carthamus Tinctorius(Safflower) Seed Oil, Macrocystis, Pyrifera (Brown Kelp) Extract, Panax (Ginseng) Root Extract. May Contain: Silica, Dimethicone, Calcium Sodium Borosilicate, Tin Oxide, Titanium Dioxide, CI 7789, Ferric Ferrocyanide  CI77510, Iron Oxides C1 77491,  CI 77742, C177499.Moonbeam Ingredients: Mica, Zinc Stearate, Ethylhexyl Stearate(Plant Source), , Cocos Nucifera (Coconut) Oil, Carthamus Tinctorius(Safflower) Seed Oil, Macrocystis, Pyrifera (Brown Kelp) Extract, Panax (Ginseng) Root Extract. May Contain: Silica, Dimethicone, Calcium Sodium Borosilicate, Tin Oxide, Titanium Dioxide, CI 7789, Ferric Ferrocyanide  CI77510, Iron Oxides C1 77491,  CI 77742, C177499. Celestial Ingredients: Mica, Zinc Stearate, Ethylhexyl Stearate(Plant Source), , Cocos Nucifera (Coconut) Oil, Carthamus Tinctorius(Safflower) Seed Oil, Macrocystis, Pyrifera (Brown Kelp) Extract, Panax (Ginseng) Root Extract. May Contain: Silica, Dimethicone, Calcium Sodium Borosilicate, Tin Oxide, Titanium Dioxide, CI 7789, Ferric Ferrocyanide  CI77510, Iron Oxides C1 77491,  CI 77742, C177499.Stargazer Ingredients: Mica, Zinc Stearate, Ethylhexyl Stearate(Plant Source), , Cocos Nucifera (Coconut) Oil, Carthamus Tinctorius(Safflower) Seed Oil, Macrocystis, Pyrifera (Brown Kelp) Extract, Panax (Ginseng) Root Extract. May Contain: Silica, Dimethicone, Calcium Sodium Borosilicate, Tin Oxide, Titanium Dioxide, CI 7789, Ferric Ferrocyanide  CI77510, Iron Oxides C1 77491,  CI 77742, C177499.",
      "product_type": "eyeshadow",
      "product_colors ": [
        {
          "hexvalue": "#DAC4B4",
          "colorname": "color 1"
        },
        {
          "hexvalue": "#AD8466",
          "colorname": "color 2"
        },
        {
          "hexvalue": "#776862",
          "colorname": "color 3"
        },
        {
          "hexvalue": "#383C58",
          "colorname": "color 4"
        }
      ]
    },
    {
      "id": 31,
      "brand": "e.l.f.",
      "name": "e.l.f. Studio Prism Eyeshadow",
      "image_link": "//s3.amazonaws.com/donovanbailey/products/api_featured_images/000/000/284/original/data?1514063294",
      "description": "These ultra-silky and lustrous eyeshadows look like a powder but feel like a cream, allowing for a smooth and flawless application. Use to contour, line, and highlight for a radiant finish. The luminous, shimmery formula creates a gorgeous range of looks for both day and night. ",
      "product_type": "eyeshadow",
      "product_colors": [
        {
          "hexvalue": "#D9CFC2",
          "colorname": "color 1"
        },
        {
          "hexvalue": "#E0CBB0",
          "colorname": "color 2"
        },
        {
          "hexvalue": "#BC9A86",
          "colorname": "color 3"
        },
        {
          "hexvalue": "#A08368",
          "colorname": "color 4"
        },
        {
          "hexvalue": "#917362",
          "colorname": "color 5"
        },
        {
          "hexvalue": "#806A60",
          "colorname": "color 6"
        }
      ]
    },
    {
      "id": 32,
      "brand": "pacifica",
      "name": "Pacifica Enlighten Eye Brightening Shadow Palette",
      "image_link": "//s3.amazonaws.com/donovanbailey/products/api_featured_images/000/000/283/original/data?1514063293",
      "description": "An incredibly innovative formula that pushes mineral makeup color to new bounds.  Rich, lasting, ceaseless eye shadows are infused with coconut water for a velvety, cream-like finish.  These four highly pigmented mineral satin makeup and iridescent shades are specially curated are designed to brighten the eyes and make you look gorgeous and awake.  (Even when you did not get a good night's sleep!) Includes 4 Beautiful Shades:Urchin - An iridescent jeweled purple with gold tones.  Use dry as a shadow, wet as a liner.  Perfect for smudging and a great substitute for black.Golden - A perfect gold with just the right amount of shimmer.  Use on the lids or line the eyes.Coral Sand - A satin lid base or highlighter. Skinny Dip - Matte nude base, a universal brightener.  Perfect for using on the inner eye to add brightness.Formulated without: Phthalates, parabens, carmine, beeswax, lanolin, mineral oils, propylene glycol, petroleum and FD& C colors (along with other nasties you do not want on your skin).  No animal testing. Gluten-free, 100% vegan and cruelty-free.Ingredients: Coral Sand Ingredients: Mica, Zinc Stearate, Ethylhexyl Stearate(Plant Source), , Cocos Nucifera (Coconut) Oil, Carthamus Tinctorius(Safflower) Seed Oil, Macrocystis, Pyrifera (Brown Kelp) Extract, Panax (Ginseng) Root Extract. May Contain: Silica, Dimethicone, Calcium Sodium Borosilicate, Tin Oxide, Titanium Dioxide, CI 7789, Ferric Ferrocyanide CI77510, Iron Oxides C1 77491, CI 77742, C177499.Skinny Dip Ingredients: Mica, Zinc Stearate, Ethylhexyl Stearate(Plant Source), , Cocos Nucifera (Coconut) Oil, Carthamus Tinctorius(Safflower) Seed Oil, Macrocystis, Pyrifera (Brown Kelp) Extract, Panax (Ginseng) Root Extract. May Contain: Silica, Dimethicone, Calcium Sodium Borosilicate, Tin Oxide, Titanium Dioxide, CI 7789, Ferric Ferrocyanide CI77510, Iron Oxides C1 77491, CI 77742, C177499.Urchin Ingredients: Mica, Zinc Stearate, Ethylhexyl Stearate(Plant Source), , Cocos Nucifera (Coconut) Oil, Carthamus Tinctorius(Safflower) Seed Oil, Macrocystis, Pyrifera (Brown Kelp) Extract, Panax (Ginseng) Root Extract. May Contain: Silica, Dimethicone, Calcium Sodium Borosilicate, Tin Oxide, Titanium Dioxide, CI 7789, Ferric Ferrocyanide CI77510, Iron Oxides C1 77491, CI 77742, C177499.Golden Ingredients: Mica, Zinc Stearate, Ethylhexyl Stearate(Plant Source), , Cocos Nucifera (Coconut) Oil, Carthamus Tinctorius(Safflower) Seed Oil, Macrocystis, Pyrifera (Brown Kelp) Extract, Panax (Ginseng) Root Extract. May Contain: Silica, Dimethicone, Calcium Sodium Borosilicate, Tin Oxide, Titanium Dioxide, CI 7789, Ferric Ferrocyanide CI77510, Iron Oxides C1 77491, CI 77742, C177499.",
      "product_type": "eyeshadow",
      "product_colors": [
        {
          "hexvalue": "#BF9D87",
          "colorname": "color 1"
        },
        {
          "hexvalue": "#BE866B",
          "colorname": "color 2"
        },
        {
          "hexvalue": "#BB8D59",
          "colorname": "color 3"
        },
        {
          "hexvalue": "#664E51",
          "colorname": "color 4"
        }
      ]
    },
    {
      "id": 33,
      "brand": "pacifica",
      "name": "Pacifica Radiant Shimmer Highlighting Creams For Eyes Lips Face",
      "image_link": "//s3.amazonaws.com/donovanbailey/products/api_featured_images/000/000/278/original/data?1514063324",
      "description": "You will absolutely LOVE these Radiant Shimmer Coconut Multiples! Coconut infused multi-use creamy colors for cheeks, eyes, lips and even your body are housed in a magically decorated palette. Create shimmering highlights, glowing illumination and beautiful contours. Natural mineral makeup formula blends effortlessly and can be used sheer, layered or built-up for more drama. Go ahead and play all you want, these mineral makeup colors are full of skin-loving naturals.Includes 3 Shimmering Shades:Bronzed: Perfectly glowing sun-kissed color with golden shimmer shadowIsland Rose: shimmering, radiant dewy pink shadowMoonlit: Iridescent pale shades of moon-kissed shimmerFeatures:No animal testingGluten-free100% vegan and cruelty-freeFormulated without: Phthalates, parabens, carmine, beeswax, lanolin, mineral oils, propylene glycol, petroleum and FD& C colors (along with other nasties you do not want on your skin). Ingredients: Ethylhexyl Palmitate, Silica, Mica,  Caprylic/Capric Triglyceride,Helianthus Annuus (Sunflower) Seed Oil, Ozokerite, Copernicia Cerifera(Carnauba) Wax, Euphorbia Cerifera (Candelilla) Wax, Cetyl Palmitate, Carthamus Tinctorius (Safflower) Seedoil, Parfum (All Natural), Tocopheryl Acetate (Vitamin E), Macrocystis Pyrifera (Brown Kelp) Extract,Cocos Nucifera (Coconut) Fruit Extract, Tin Oxide. Titanium Dioxide Ci 77891, Iron Oxides Ci 77941.",
      "product_type": "blush",
      "product_colors": [
        {
          "hexvalue": "#7E554A",
          "colorname": "color 1"
        },
        {
          "hexvalue": "#BC8A88",
          "colorname": "color 2"
        },
        {
          "hexvalue": "#D1B6A9",
          "colorname": "color 3"
        }
      ]
    },
    {
      "id": 34,
      "brand": "pure anada",
      "name": "Pure Anada Pressed Mineral Eye Color Pan",
      "image_link": "//s3.amazonaws.com/donovanbailey/products/api_featured_images/000/000/275/original/data?1514063291",
      "description": "Pure Anada is pleased to bring you a lovely selection of convenient pressed mineral colors!   You’ll love the silky texture and longevity of these very wearable shades.Mineral pigments and organic Jojoba are pressed together to create a natural makeup product. You can have confidence that you are making a beautiful, healthy choice!Pure Anada pressed colors are designed to be inserted into customizable magnetic compacts like the Pure Ananda Reusable Magnetic Compact. Design your own palette! What look do you go for: the natural bronzed babe, tropical brights, or classic beauty? Try all three with this get the look with natural makeup piece found on our blog, The Well! Shadow Finishes: Demi-Matte shadows are a combination of opaque matte minerals and luminous satin mica.  This provides both true color and a light-reflecting finish.Matte shadows are soft, silky shadows that do not exude any sheen whatsoever.Shades: Ingredients: Mica (CI 77019), Iron Oxides (CI 77492, CI 77499) Calcium Carbonate, Caprylic Triglyceride *Simmondsia Chinensis (Jojoba seed oil) Ultramarines (CI 77007), Titanium Dioxide (CI 77891) * Certified Organic IngredientVegan, Gluten Free, Non-GMO, Dairy Free, Peanut Free, Natural.",
      "product_type": "eyeshadow",
      "product_colors": [
        {
          "hexvalue": "#533C5D",
          "colorname": "Blackberry (Demi-Matte) "
        },
        {
          "hexvalue": "#8CA7B5",
          "colorname": "Breeze (Demi-Matte) "
        },
        {
          "hexvalue": "#CC9B7B",
          "colorname": "Burlap (Matte)  "
        },
        {
          "hexvalue": "#ecc2c6",
          "colorname": "Cameo (Demi-Matte Light Pink White) "
        },
        {
          "hexvalue": "#9786b0",
          "colorname": "Crocus (Demi-Matte Lilac Purple "
        },
        {
          "hexvalue": "#BAB4B6",
          "colorname": "Sterling (Demi-Matte) "
        },
        {
          "hexvalue": "#F9DDCB",
          "colorname": "Whisper (Demi-Matte) "
        }
      ]
    },
    {
      "id": 35,
      "brand": "pacifica",
      "name": "Pacifica Natural Minerals Solar Complete Color Mineral Palette",
      "image_link": "//s3.amazonaws.com/donovanbailey/products/api_featured_images/000/000/274/original/data?1514063328",
      "description": "All you need to look naturally gorgeous!  The Solar Complete Mineral Palette is a full set of eye shadows, blush, bronzer and coconut highlighters all in one beautiful, recyclable palette.  Each natural mineral shadow is highly pigmented and so smooth it applies like a cream.  Plus the new blush and bronzer are infused with coconut, apply easily and can be layered to build color.  The coconut highlighters are in two new shades as well as the popular Island Rose and can be used on cheekbones, eye brow bones, and even the lips to provide the perfect amount of natural brightness.  With a variety of colors, many looks are achievable so you can be natural by day or smokin' hot by night.Colours Included:Eye shades: Neptune, Glow, Treasure, Coral, Mermaid Aqua, SandalwoodCheek shades: Flushed, BronzedHighlighter shades: Gold Dust, Island Rose, Pink Opal.",
      "product_type": "bronzer",
      "product_colors": [
        {
          "hexvalue": "#C89282",
          "colorname": "color 1"
        },
        {
          "hexvalue": "#876A51",
          "colorname": "color 2"
        }
      ]
    },
    {
      "id": 36,
      "brand": "pacifica",
      "name": "Pacifica Natural Eye Pencil",
      "image_link": "//s3.amazonaws.com/donovanbailey/products/api_featured_images/000/000/248/original/data?1514063284",
      "description": "Pacifica Natural Eye Pencil is a waterproof, buttery smooth eye pencil that glides on easily to avoid pulling on the delicate eye area. Color glides on and stays put for those perfectly defined eyes. Whether it be a very fine line or the ever glamorous cat-eye, these pencils provide the right amount of saturated color to make your eyes pop.Formulated without: Animal ingredients (including carmine, beeswax and \nlanolin), animal testing, FD&C colors, mineral oil, parabens, \nphthalates, petroleum, propylene glycol, SLS, gluten, peanut oil and \nother ingredients you don’t want on your skin.Ingredients: Gun Metal (pewter) - hydrogenated simmondsia chinensis seed oil, mica, caprylic / capric triglycerides, hydrogenated vegetable oil, simmondsia chinensis seed oil, butyrospermum parkii butter, titanium dioxide CI 77891, canola oil, sclerocarya birrea seed oil, iron oxide CI 77499, euphorbia cerifera cera, glyceryl caprylate, copernicia cerifera cera, tocopherol, helianthus annuus seed oil, ascorbyl palmitateBare (Nude) - titanium dioxide CI 77891, hydrogenated simmondsia chinensis seed oil, simmondsia chinensis seed oil, caprylic / capric triglycerides, hydrogenated vegetable oil, mica, butyrospermum parkii butter, canola oil, sclerocarya birrea seed oil, iron oxide CI 77492, euphorbia cerifera cera, glyceryl caprylate, copernicia cerifera cera, iron oxide CI 77491, iron oxide CI 77499, tocopherol, ascorbyl palmitate.Fringe (brown) - hydrogenated simmondsia chinensis seed oil, iron oxide CI 77499, mica, iron oxide CI 77491, iron oxide CI 77492, hydrogenated vegetable oil, caprylic / capric triglyceride, simmondsia chinensis seed oil, butyrospermum parkii butter, canola oil, sclerocarya birrea seed oil, candelilla cerifera cera, glyceryl caprylate, copernicia cerifera cera, tocopherol, helianthus annuus seed oil, ascorbyl palmitate.Jet (black) - iron oxide CI 77499, hydrogenated simmondsia chinenesis seed oil, caprylic / capric triglyceride, simmondsia chinenesis seed oil, hydrogenated vegetable oil, butyrospermum parkii butter, sclerocarya birrea seed oil, mica, candelilla cerifera cera, glyceryl caprylate, copernicia cerifera cera, tocopherol, helianthus annuus seed oil, ascorbyl palmitate.",
      "product_type": "eyeliner",
      "product_colors": [
        {
          "hexvalue": "#386e6e",
          "colorname": "Petrol "
        },
        {
          "hexvalue": "#5a5b60",
          "colorname": "Anthracite "
        }
      ]
    },
    {
      "id": 37,
      "brand": "sante",
      "name": "Sante Kajal Eyeliner Pencil",
      "image_link": "//s3.amazonaws.com/donovanbailey/products/api_featured_images/000/000/234/original/open-uri20171223-4-1tzjkro?1514062286",
      "description": "Sante gentle eyeliner pencils have a wonderful texture. They are perfectly suitable\n for use on the inner eyelid. Or can be used blended with a sponge to create a \nsophisticated effect and make the color last longer.  Vegan and \ngluten-free. Not tested on animals.Ingredients: Caprylic/Capric Triglyceride, Ricinus Communis \n(Castor) Seed Oil*, Hydrogenated Palm Kernel Glycerides, Copernica \nCerifera (Carnauba) Wax, Hydrogenated Castor O il, Euphorbia Cerifera \n(Candelilla) Wax, Cera Alba (Beeswax), Hydrogenated Palm Glycerides, \nAscorbyl Palmitate, Tocopherol, Mica, [+/-CI 77007, CI 77288, CI 77491, \nCI 77492, CI 77499, CI 77510, CI 77742, CI 77891].",
      "product_type": "eyeliner",
      "product_colors": [
        {
          "hexvalue": "#386e6e",
          "colorname": "No. 10 Petrol "
        },
        {
          "hexvalue": "#5f769c",
          "colorname": "No.4 Night Blue "
        },
        {
          "hexvalue": "#5a5b60",
          "colorname": "No.7 Anthracite "
        }
      ]
    },
    {
      "id": 38,
      "brand": "pacifica",
      "name": "Pacifica Natural Minerals Smolder Eye Lining Gel",
      "image_link": "//s3.amazonaws.com/donovanbailey/products/api_featured_images/000/000/188/original/data?1514063296",
      "description": "Pacifica Natural Minerals Smolder Eye Lining Gel stands above the rest. It's not\n waxy or tacky but has a creamy finish that can be smudged or left \nsharp. The smooth application allows you to rock a natural to smoky \ndramatic look with long-lasting natural mineral color. Line the eyes \neffortlessly or use as an allover creaseless shadow. Can be worn sheer \nor layered for more intensity. Gently line both upper and/or lower eye \nlid with a lining brush for a dramatic effect, or simply use your finger\n to smudge the edges for your sexy smolder. A product that is a true \nmulti-tasker. 100% vegan.In three full depth shades: Anchor: (bronzed brown)Midnight: (deep navy)Tahitian Pearl: (pearlized green/ grey with gold dust)Features:100% vegan, no animal ingredients or testingA product that is a true multi-taskerThe natural color can be layered for a more dramatic lookIngredients:\n Caprylic/Capric Trglyceride (Coconut Source), Cyclopentasiloxane, Mica,\n Tribehenin (Plant Source), Cocos Nucifera (Coconut) Oil, Cocos Nucifera\n (Coconut) Water,  Withania Somnifera Root Extract, C18-36 Acid Glycol \nEster(Plant Source), Phenoxyethanol.  May Contain: Calcium Sodium \nBorosilicate, Tin Oxide, 77891 Iron Oxides C1 77491, C1 77492, C1 77499,\n Ultramarines C1 77007, Titanium Dioxide C1 77891.",
      "product_type": "eyeshadow",
      "product_colors": [
        {
          "hexvalue": "#141936",
          "colorname": "Midnight - Deep Navy "
        },
        {
          "hexvalue": "#564728",
          "colorname": "Tahitian - Pearl Pearlized Green-Grey with Gold Dust  "
        }
      ]
    },
    {
      "id": 39,
      "brand": "e.l.f.",
      "name": "e.l.f. Studio Eyeliner & Shadow Stick ",
      "image_link": "//s3.amazonaws.com/donovanbailey/products/api_featured_images/000/000/182/original/data?1514063295",
      "description": "Achieve color intensity for your eyes with twist-up ease - no sharpening\n required!  Glide on the soft gel liner side to create dramatic \ndefinition to the eyes.  The light-reflecting pigments help line the eye\n subtly but intensely for a fuller more enhanced effect.  Use the smooth\n glide shadow stick side for soft highlighting color on the eyes to \ncomplement the liner for a polished and finished look. Perfect for \ncreating an easy smoky eye!Eyeliner Ingredient: Synthetic Beeswax, Copernicia Cerifera (Carnauba) \nWax, Ceresin Wax, Bis-Diglyceryl Polyacyladipate-2, Phenyl Trimethicone,\n Cyclomethicone, Mica, Trimethylsiloxysilicate, BHT, Benzyl Alcohol, \nMethylchloroisothiazolinone, Methylisothiazolinone\n\nMay Contain:Iron Oxides (CI 77491 CI 77492 CI 77499), Titanium Dioxide (CI77891)\n\nShadow Ingredient: Paraffin Wax, Microcrystalline Wax, Copernicia \nCerifera (Carnauba) Wax, Castor Oil, Bis-Diglyceryl Polyacyladipate-2, \nPetrolatum, Isopropyl Palmitate, BHT, Benzyl Alcohol, \nMethylchloroisothiazolinone, Methylisothiazolinone \n\nMay Contain:Iron Oxides (CI 77491 CI 77492 CI 77499), Titanium Dioxide (CI77891)\n.",
      "product_type": "eyeshadow",
      "product_colors": []
    },
    {
      "id": 40,
      "brand": "e.l.f.",
      "name": "e.l.f. Studio Precision Liquid Eyeliner",
      "image_link": "//s3.amazonaws.com/donovanbailey/products/api_featured_images/000/000/180/original/data?1514062276",
      "description": "This long-lasting e.l.f. Studio Precision Liquid Eyeliner formula has pigment rich \ncolor that glides on smoothly for defined and precise lines. Features a \ntapered brush design to create thin or bold lines for a custom look. Try\n a winged-eyeliner look and unleash your inner retro diva!Ingredients: Water (Aqua), Acrylates Copolymer, Iron Oxides (CI 77491), Black No. 2 \n(CI 77266), PEG-40 Hydrogenated Castor Oil, Polysorbate 20, Propylene \nGlycol, Xanthan Gum, Phenoxyethanol, Methylparaben, Ethylparaben, \nButylparaben, Propylparaben, Isobutylparaben.",
      "product_type": "eyeliner",
      "product_colors": [
        {
          "hexvalue": "#5a5b60",
          "colorname": "Anthracite "
        }
      ]
    },
    {
      "id": 41,
      "brand": "mineral fusion",
      "name": "Mineral Fusion Sheer Moisture Lip Tint",
      "image_link": "//s3.amazonaws.com/donovanbailey/products/api_featured_images/000/000/101/original/data?1514063310",
      "description": "Mineral Fusion Sheer Moisture Lip Tint is a sheer, buildable mineral colour that provides long-lasting hydration and applies effortlessly on-the-go with no mirror required.  The 100% pure mineral shades are ultra-hydrating, infused with Cocoa Butter, a lip-firming peptide, and a refreshing Vanilla-Mint flavor.  Features:Hydrating & FirmingPerfect for On-The-Go UseFree of artificial colour and fragranceCruelty FreeParaben FreeTalc FreeHypo-allergenicPhthalate FreeIngredients: Ricinus Communis (Castor) Seed Oil, Ethylhexyl Hydroxystearate, Jojoba (Simmondsia  Chinensis) Seed Oil, Cera Alba (Beeswax), Euphorbia Cerifera (Candelilla) Wax,  Copernicia Cerifera (Carnauba) Wax, Isopropyl Palmitate, Cetyl Alcohol, Ascorbic Acid  (Vitamin C), Theobroma Cacao (Cocoa) Seed Butter, Aloe Barbadensis, Tocopheryl  Acetate (Vitamin E), Palmitoyl Tripeptide-5, Olea Europaea (Olive) Leaf Extract,  Eupatorium Rebaudianum Bertoni Leaf Extract, Origanum Vulgare (Oregano) Leaf  Extract, Thymus Vulgarus (Thyme) Extract, Cocos Nucifera (Coconut) Oil, and Natural  Vanilla Mint.    May Contain: Red Iron Oxide, Yellow Iron Oxide, Black Iron Oxide, Titanium Dioxide, Mica. Gluten Free, Vegan.",
      "product_type": "lipstick",
      "product_colors": [
        {
          "hexvalue": "#54281F",
          "colorname": "Adorn - Rich Plum "
        },
        {
          "hexvalue": "#793041",
          "colorname": "Blush - Earthy Purple "
        },
        {
          "hexvalue": "#892E33",
          "colorname": "Flicker - Berry "
        },
        {
          "hexvalue": "#B1585C",
          "colorname": "Glisten - Caramel Shimmer "
        },
        {
          "hexvalue": "#981E29",
          "colorname": "Smolder - Cherry Red "
        }
      ]
    },
    {
      "id": 42,
      "brand": "pacifica",
      "name": "Pacifica Devocean Natural Lipstick Deeply Devoted Creamy Color",
      "image_link": "//s3.amazonaws.com/donovanbailey/products/api_featured_images/000/000/071/original/open-uri20171223-4-1b53nbg?1514062255",
      "description": "Pacifica Devocean Lipstick is a 100% natural, hydrating vegan lipstick that will last with intensity, like the deepest of love.What look do you go for: the natural bronzed babe, tropical brights, or classic beauty? Try all three with this get the look with natural makeup piece found on our blog, The Well! Formulated without: Animal ingredients (including carmine, \nbeeswax and lanolin), animal testing. FD & C colors, mineral oil, \nparabens, phthalates, petroleum, propylene glycol, SLS, gluten, peanut \noil and other ingredients you don't want on your skin.",
      "product_type": "lipstick",
      "product_colors": [
        {
          "hexvalue": "#EB7583",
          "colorname": "XOX "
        }
      ]
    },
    {
      "id": 43,
      "brand": "e.l.f.",
      "name": "e.l.f. Studio Matte Lip Color",
      "image_link": "//s3.amazonaws.com/donovanbailey/products/api_featured_images/000/000/061/original/data?1514062255",
      "description": "This convenient jumbo sized lip pencil creates exact color application \nwith twist up ease so you never have to sharpen.  The pigment rich color\n glides on effortlessly and easily to provide long lasting matte color. \n The enriched Vitamin A, C & E formula moisturizes and hydrates lips\n for beautiful healthy looking lips.How To Use: Apply to lips and blend in color. Re-apply as often as desired. Use alone or layer with your favorite lip gloss shade for a glossy effect. Ingredients: Paraffinum Liquidum (Mineral Oil), Microcrystalline Wax (Cera \nMicrocristallina), Synthetic Beeswax，Ethylhexyl Palmitate, Copernicia \nCerifera (Carnauba) Wax, Ozokerite, Polyethylene, Ceresin, Silica \nDimethyl Silylate, Polyisobutene, Aspartame, Retinol (VA), Magnesium \nAscorbyl Phosphate (VC), Tocopheryl Acetate (VE), Phenoxyethanol, \nEthylparaben，Propylparaben, Methylparaben. May Contain：Titanium Dioxide \n(CI 77891), Iron Oxides (CI 77491, CI 77492,CI 77499), Blue No.1 Lake ( \nCI 42090), Red No.40 Lake (CI 16035), Red No.7 Lake (CI 15850), Red \nNo.27 Lake (CI 45410).",
      "product_type": "lipstick",
      "product_colors": [
        {
          "hexvalue": "#AA2A63",
          "colorname": "Berry Sorbet "
        },
        {
          "hexvalue": "#9B3F4A",
          "colorname": "Cranberry "
        },
        {
          "hexvalue": "#D4233F",
          "colorname": "Dash of Pink "
        },
        {
          "hexvalue": "#E6A2A3",
          "colorname": "Natural  "
        },
        {
          "hexvalue": "#C63232",
          "colorname": "Rich Red  "
        },
        {
          "hexvalue": "#D1949C",
          "colorname": "Tea Rose "
        },
        {
          "hexvalue": "#923144",
          "colorname": "Wine "
        }
      ]
    },
    {
      "id": 44,
      "brand": "e.l.f.",
      "name": "e.l.f. Studio Moisturizing Lipstick",
      "image_link": "//s3.amazonaws.com/donovanbailey/products/api_featured_images/000/000/056/original/data?1514062254",
      "description": "The velvety, satin texture of e.l.f. Studio Moisturizing Lipstick glides on lips with vibrant color and \nluminous shine. Enriched with Shea and Vitamins A, C, & E to nourish\n and hydrate the lips. The rich, creamy formula seals in moisture for \nlong-lasting wear and comfort.Ingredients: Paraffinum Liquidum (Mineral Oil), Petrolatum, Ceresin, Ethylhexyl Palmitate, Hydrogenated Polydecene, Microcrystalline Wax (Cera Microcristallina), Polybutene, Paraffin, Synthetic Beeswax, Polyethylene, Copernicia Cerifera (Carnauba) Wax, Silica Dimethyl Silylate, Fragrance (Parfum), Butyrospermum Parkii (Shea) Butter, Retinyl Palmitate (Va), Tocopheryl Acetate (Ve), Ascorbyl Palmitate (Vc), Neotame, Propylparaben May Contain: Mica, Titanium Dioxide (CI 77891), Iron Oxides (CI 77491, CI 77492, CI 77499), Red 40 Lake (CI 16035), Red 7 Lake (CI 15850), Red 27 Lake (CI 45410), Red 6 Lake (CI 15850), Yellow 5 Lake (CI 19140), Blue 1 Lake (CI 42090).",
      "product_type": "lipstick",
      "product_colors": [
        {
          "hexvalue": "#FCAE98",
          "colorname": "Party in the Buff "
        },
        {
          "hexvalue": "#7D2D3A",
          "colorname": "Wine Tour "
        },
        {
          "hexvalue": "#D40D14",
          "colorname": "Red Carpet "
        },
        {
          "hexvalue": "#C55456",
          "colorname": "Ravishing Rose "
        },
        {
          "hexvalue": "#F57574",
          "colorname": "Pink Minx "
        },
        {
          "hexvalue": "#C26659",
          "colorname": "Cheeky "
        }
      ]
    },
    {
      "id": 45,
      "brand": "e.l.f.",
      "name": "e.l.f. Studio Lengthening & Volumizing Mascara",
      "image_link": "//s3.amazonaws.com/donovanbailey/products/api_featured_images/000/000/037/original/data?1514062252",
      "description": "Achieve thicker, fuller, and longer lashes that are beautiful and \nnatural with e.l.f. Studio Lengthening & Volumizing Mascara. The enlarged brush coats your lashes evenly for an enhanced \nappeal.  The unique formula is clump free and quick drying so you can \nhave color that stays on all day with no smudging and no flaking.Ingredients: Aqua(Water), Caprylic/Caprictri Glycerides, Cera Carnauba (Carnauba) \nWax, Synthetic Beeswax, Styrene/Acrylates/Ammonium Methacrylate \nCopolymer, Stearic Acid, Cetyl Alcohol, Glyceryl,Stearate SE, PVP, \nTriethanolamine, Triacontanyl PVP, Hydroxyethyl Cellulose, Benzyl \nAlcohol, Methylchloroisothiazolinone, Methylisothiazolinone\n\nMay Contain: Iron Oxides(CI 77891, CI 77892, CI 77899)\n.",
      "product_type": "mascara",
      "product_colors": [
        {
          "hexvalue": "#386e6e",
          "colorname": "10 Petrol "
        },
        {
          "hexvalue": "#5a5b60",
          "colorname": "7 Anthracite "
        }
      ]
    },
    {
      "id": 46,
      "brand": "e.l.f.",
      "name": "e.l.f. Studio Waterproof Lengthening & Volumizing Mascara",
      "image_link": "//s3.amazonaws.com/donovanbailey/products/api_featured_images/000/000/026/original/data?1514061111",
      "description": "Achieve thicker, fuller, and longer lashes that are beautiful and \nnatural with e.l.f. Studio Waterproof Lengthening & Volumizing Mascara. The enlarged brush coats your lashes evenly for an enhanced \nappeal.  The unique formula is clump free and quick drying so you can \nhave color that stays on all day with no smudging and no flaking. \nWaterproof, tear-proof and sweat proof for a look that lasts against all\n odds.Ingredients: Aqua (Water), Caprylic/Caprictri Glycerides, Cera Carnauba (Carnauba) \nWax, Synthetic Beeswax\nStyrene/Acrylates/Ammonium Methacrylate Copolymer, Stearic Acid, Cetyl \nAlcohol, Glyceryl Stearate SE\nPVP, Triethanolamine, Triacontanyl PVP, Hydroxyethyl Cellulose, Benzyl \nAlcohol, Methylchloroisothiazolinone, Methylisothiazolinone. May Contain: Iron Oxides(CI 77491, CI 77492, CI 77499)\n.",
      "product_type": "mascara",
      "product_colors": [
        {
          "hexvalue": "#386e6e",
          "colorname": "10 Petrol "
        },
        {
          "hexvalue": "#5a5b60",
          "colorname": "7 Anthracite "
        }
      ]
    },
    {
      "id": 47,
      "brand": "e.l.f.",
      "name": "e.l.f. Studio Mineral Infused Mascara",
      "image_link": "//s3.amazonaws.com/donovanbailey/products/api_featured_images/000/000/022/original/data?1514061108",
      "description": "e.l.f. Studio Mineral Infused Mascara creates fuller, healthier looking \nlashes.  Enhance lashes for a naturally thicker and more volumized look.\n  The long-wear formula and unique silicone brush creates a clump free \nand defined application for gorgeous lashes all day.Ingredients: Aqua (Water), Caprylic/Capric Triglyceride, Cera Carnauba (Carnauba) \nWax, Synthetic Beeswax, Styrene/Acrylates/Ammonium Methacrylate \nCopolymer, Stearic Acid, Cetyl Alcohol, Glyceryl Stearate SE, PVP, \nTriethanolamine , Triacontanyl PVP, Hydroxyethyl Cellulose, Caprylyl \nGlycol, Phenoxyethanol, Potassium Sorbate\nMay Contain: Iron Oxides (CI 77491 , CI 77492 , CI 77499), Manganese \nViolet (CI 77742) \n\n.",
      "product_type": "mascara",
      "product_colors": [
        {
          "hexvalue": "#386e6e",
          "colorname": "10 Petrol "
        },
        {
          "hexvalue": "#5a5b60",
          "colorname": "7 Anthracite "
        }
      ]
    },
    {
      "id": 48,
      "brand": "suncoat",
      "name": "Suncoat Sugar-Based Mascara",
      "image_link": "//s3.amazonaws.com/donovanbailey/products/api_featured_images/000/000/017/original/data?1514061110",
      "description": "This sugar-based natural mascara is another unique product from Suncoat. Made with natural sugar-based biopolymer, kaolin clay, earth pigments and enriched with Vitamin E, it naturally builds lash volume and length! It is a superior alternative for your sensitive eyes and for our environment!Features: Free of PVP (polyvinyl pyrrolidone polymer), acrylic copolymer, VA (vinyl acetate) polymerFree of fragrance, parabens, alcohol and glycolKind to sensitive eyesNaturally builds lash volume and lengthBiodegradable ingredientsVeganNot tested on animals Although NOT waterproof, this natural mascara has GREAT wear-ability. It resists smudging, but washes off easily with regular skin cleanser and water.Ingredients: Aqua (water), kaolin clay, vegetable glycerin, hydrolyzed Zee mays (corn) starch (natural sugar-based biopolymer), lecithin, Citrus grandis (grapefruit) seed extract, tocopherol (vitamin E), citric acid, pigments.",
      "product_type": "mascara",
      "product_colors": [
        {
          "hexvalue": "#386e6e",
          "colorname": "10 Petrol "
        },
        {
          "hexvalue": "#5a5b60",
          "colorname": "7 Anthracite "
        }
      ]
    },
    {
      "id": 49,
      "brand": "pacifica",
      "name": "Pacifica Aquarian Gaze Water-Resistant Mascara",
      "image_link": "//s3.amazonaws.com/donovanbailey/products/api_featured_images/000/000/016/original/data?1514063333",
      "description": "This Pacifica Aquarian Gaze Water-Resistant and long wearing is a deep blue super lush natural mineral mascara. Amazing lengthening brush (100% \nvegan) makes your lashes insanely long and gorgeous as it separates to \nbuild volume. It is nourishing formula is infused with coconut oil, kelp\n extract and vitamin B to hydrate each lash as it lengthens and \nstrengthens.Features:Coconut Oil- Studies have shown coconut oil to be an excellent hair strengthener and moisturizer that can reduce breakagePanthenol (Vitamin B)- Helps strengthen and nourish hairKelp Extract- Moisturize and condition lashesView IngredientsFormulated without:\n Animal ingredients (including carmine, beeswax and lanolin), animal \ntesting. FD&C colors, mineral oil, parabens, phthalates, petroleum, \npropylene glycol, SLS, gluten, peanut oil and other ingredients you \ndon’t want on your skin.Ingredients: Water (Aqua), \nCopernicia cerifera (Carnauba) Wax (thickener), Euphorbia cerifera \n(Candelilla) Wax (thickener), Acrylates Crosspolymer, Butylene Glycol, \nStearic Acid, Glyceryl Stearate, Polyisobutene, Phenoxyethanol, \nHydroxyethylcellulose Sodium Hydroxide, Caprylyl Glycol, \nEthylhexylglycerin, Steareth-21, Cocos Nucifera (coconut) Oil, Panthenol\n (vitamin B), macrocystis pyrifera (kelp) extract, Sodium \nDehydroacetate, Disodium EDTA, Hexylene Glycol, Iron Oxides CI 77491, \n77492, CI 77499.",
      "product_type": "mascara",
      "product_colors": [
        {
          "hexvalue": "#386e6e",
          "colorname": "10 Petrol "
        },
        {
          "hexvalue": "#5a5b60",
          "colorname": "7 Anthracite "
        }
      ]
    },
    {
      "id": 50,
      "brand": "pacifica",
      "name": "Pacifica Stellar Gaze Length & Strength Mineral Mascara",
      "image_link": "//s3.amazonaws.com/donovanbailey/products/api_featured_images/000/000/005/original/data?1514061107",
      "description": "You will fall in love with Pacifica's long lasting, nourishing, natural mineral\n mascara.  This amazing formula is infused with coconut oil and vitamin B\n to hydrate each lash as it lengthens, strengthens and adds volume. \nApply for a natural look by day, or layer for more volume with the super\n plush 100% vegan brush that provides effortless coverage.100% vegan. Cruelty-free. Formulated without FD & C color, parabens, talc and mineral oil.\nRead our blog post for tips on how to Green & Clean your makeup bag.  Ingredients: Aqua, glycerin (vegetable), glyceryl stearate se, jojoba \nesters, tapioca starch, stearic acid ( vegetable), copernicia cerfera \n(carnauba) wax, euphorbia cerifera (candelilla) wax, arabic/acacia gum, \nacrylates, crosspolymer, potassium cetyl phosphate, microcrystalline \ncellulse (plant), cocos nucifera (coconut) oil, panthenol (vitamin b), \ncellulose gum, gluconolactone, macrocystis pyifera (brown kelp) extract,\n hydrolyzed oryza sativa (rice) protein, sodium benzoate, iron oxides c1\n 77499.",
      "product_type": "mascara",
      "product_colors": [
        {
          "hexvalue": "#386e6e",
          "colorname": "10 Petrol "
        },
        {
          "hexvalue": "#5a5b60",
          "colorname": "7 Anthracite "
        }
      ]
    }
  ]
}